<?xml version="1.0" encoding="UTF-8" standalone="no"?>
<svg
   xmlns:dc="http://purl.org/dc/elements/1.1/"
   xmlns:cc="http://creativecommons.org/ns#"
   xmlns:rdf="http://www.w3.org/1999/02/22-rdf-syntax-ns#"
   xmlns:svg="http://www.w3.org/2000/svg"
   xmlns="http://www.w3.org/2000/svg"
   xmlns:sodipodi="http://sodipodi.sourceforge.net/DTD/sodipodi-0.dtd"
   xmlns:inkscape="http://www.inkscape.org/namespaces/inkscape"
   viewBox="0 -200 20 20"
   id="svg3101"
   version="1.1"
   inkscape:version="0.48.1 r9760"
   width="100%"
   height="100%"
   sodipodi:docname="pointingindexrightwhite_FreeSerif.svg">
  <metadata
     id="metadata3111">
    <rdf:RDF>
      <cc:Work
         rdf:about="">
        <dc:format>image/svg+xml</dc:format>
        <dc:type
           rdf:resource="http://purl.org/dc/dcmitype/StillImage" />
      </cc:Work>
    </rdf:RDF>
  </metadata>
  <defs
     id="defs3109" />
  <sodipodi:namedview
     pagecolor="#ffffff"
     bordercolor="#666666"
     borderopacity="1"
     objecttolerance="10"
     gridtolerance="10"
     guidetolerance="10"
     inkscape:pageopacity="0"
     inkscape:pageshadow="2"
     inkscape:window-width="1366"
     inkscape:window-height="673"
     id="namedview3107"
     showgrid="false"
     inkscape:zoom="10.016"
     inkscape:cx="-1.3713124"
     inkscape:cy="13.019623"
     inkscape:window-x="0"
     inkscape:window-y="31"
     inkscape:window-maximized="1"
     inkscape:current-layer="svg3101" />
  <g
     transform="matrix(0.01726122,0,0,-0.01726122,1.9476409,-184.02762)"
     id="g3103">
    <path
       d="m 472,161 q -52,0 -87,8.5 Q 350,178 335.5,188 321,198 294,208.5 267,219 232,222 V 173 H 149 L 137,148 32,161 v 346 l 200,11 v -34 q 7,-1 14,-1 32,0 94,38 62,38 102,38 29,0 55,-18 43,5 79,5 163,0 244,-16 81,-16 81,-62 0,-33 -52.5,-48.5 Q 796,404 657,404 q 18,-19 18,-36 0,-6 -7,-23 34,-21 34,-57 0,-14 -10,-26 25,-29 25,-48 0,-31 -44,-56 -44,-25 -98,-25 -44,0 -63,28 h -40 z m -336,323 9,-272 h 54 v 272 h -63 z m 96,-34 V 252 q 29,-1 49,-7 9,-4 32,-17 l 24,-15 q 46,-29 125,-29 17,0 43,1 v 13 q -19,4 -26.5,16 -7.5,12 -9.5,38 -26,4 -36.5,15.5 Q 422,279 411,314 h -54 l -67,23 8,15 13,-3 q 37,-8 54,-8 50,0 89,42 l -43,53 12,14 59,-49 q 36,-32 64,-32 16,0 28,9 12,9 12,21 0,15 -20,37 l -71,71 q -23,25 -58,25 -22,0 -62,-20 -15,-7 -67,-40 -23,-14 -37,-18 -14,-4 -39,-4 z m 299,68 71,-82 q 18,-1 37,-1 175,0 214,15 15,6 15,21 0,22 -39,34 -20,6 -86,11 -66,5 -127,5 -22,0 -85,-3 z m 95,-123 q -2,-2 -4,-5 -33,-37 -79,-37 -23,0 -45,9 -8,3 -11,3 -16,0 -32,-16.5 Q 439,332 439,316 439,302 450.5,291.5 462,281 477,281 q 24,0 117,42 27,13 38.5,24 11.5,11 11.5,24 0,13 -18,24 z m 20,-76 q -4,0 -82,-38 -28,-12 -31,-13 -21,-6 -27,-10.5 -6,-4.5 -6,-15.5 0,-10 8.5,-17.5 8.5,-7.5 19.5,-7.5 40,0 95,24 21,8 34,22.5 13,14.5 13,29.5 0,10 -7.5,18 -7.5,8 -16.5,8 z m 19,-81 q -4,0 -9,-4 -12,-6 -51,-24 l -3,-1 q -3,-1 -8,-2.5 -5,-1.5 -11,-2.5 -14,-3 -34,-8 -11,-2 -14.5,-4.5 -3.5,-2.5 -3.5,-8.5 0,-12 12,-20 12,-8 31,-8 35,0 72,18 37,18 37,35 0,8 -6.5,18.5 Q 670,237 665,238 z"
       id="path3105"
       inkscape:connector-curvature="0"
       style="fill:currentColor" />
  </g>
</svg>
